testo : {{ body }}

name : {{ name }}
età : {{ age }}
numero di telefono : {{ telephone_number }}
categoria : {{ category }}
istat : {{ istat }}
comune : {{ city }}

corsi : {% for c in course %}{{ c }}; {% endfor %}